{
  "id": "63c9c440-e347-11e7-bf68-6f3451c5fdaa",
  "attachments": [
    {
      "name": "Носочки",
      "count": 1
    },
    {
      "name": "Арома свеча",
      "count": 1
    },
    {
      "name": "Стеклянная баночка с безе",
      "count": 1
    },
    {
      "name": "Печенье в шоколаде Pocky",
      "count": 1
    }
  ]
}