{
  "id": "35789430-dc18-11e7-88f8-8304b489f76f",
  "attachments": [
    {
      "name": "Золотая аромосвеча с ароматом сосны",
      "count": 1
    },
    {
      "name": "Новогодние украшения ручной работы",
      "count": 2
    },
    {
      "name": "Арахисовая паста с медом",
      "count": 1
    },
    {
      "name": "Конфеты Ferrero Rocher",
      "count": 2
    },
    {
      "name": "Арахис в йогурте",
      "count": 1
    },
    {
      "name": "Арахис в шоколаде",
      "count": 1
    },
    {
      "name": "+ Подарок игристый напиток",
      "count": 1
    }
  ]
}