{
  "id": "c29752e0-e0bc-11e7-9e7a-af63bcae6056",
  "name": "Набор № 13",
  "typeCollections": [
    "NEW_YEAR",
    "CHRISTMAS",
    "ST_VALENTINE_DAY",
    "HAPPY_BIRTHDAY",
    "TWENTY_THREE_FEBRUARY",
    "CORPORATE"
  ],
  "priceOld": 0,
  "priceCurrent": 2600,
  "date": "2017-12-17T21:00:00.000Z",
  "num": 13,
  "genders": [
    "MALE"
  ],
  "packages": [
    "CARBOARD"
  ],
  "img": {
    "small": {
      "img": "http://5.23.48.252/images/13/small.jpg",
      "id": "b09c6ba0-dc13-11e7-9774-6f5495d753ee"
    },
    "large": {
      "img": "http://5.23.48.252/images/13/big.jpg",
      "id": "b09c6ba0-dc13-11e7-9774-6f5495d753ee"
    }
  },
  "imgs": [
    {
      "img": "https://image.ibb.co/fZCUUb/7_1.jpg",
      "id": "e658fcb0-dc52-11e7-a6f2-491d8d382ca1"
    }
  ]
}