{
  "id": "c87dc130-e5b7-11e7-affe-1f26e037c518",
  "name": "Набор № 19",
  "typeCollections": [
    "NEW_YEAR",
    "CHRISTMAS",
    "CORPORATE"
  ],
  "priceOld": 0,
  "priceCurrent": 2150,
  "date": "2017-12-20T21:00:00.000Z",
  "num": 19,
  "genders": [
    "FEMALE",
    "MALE"
  ],
  "packages": [
    "CARBOARD"
  ],
  "img": {
    "small": {
      "img": "http://5.23.48.252/images/19/small.jpg",
      "id": "b09c6ba0-dc13-11e7-9774-6f5495d753ee"
    },
    "large": {
      "img": "http://5.23.48.252/images/19/big.jpg",
      "id": "b09c6ba0-dc13-11e7-9774-6f5495d753ee"
    }
  },
  "imgs": [
    {
      "img": "https://image.ibb.co/fZCUUb/7_1.jpg",
      "id": "e658fcb0-dc52-11e7-a6f2-491d8d382ca1"
    }
  ]
}