{
  "id": "d8091fb0-dc15-11e7-9e61-b5237f3a04db",
  "name": "Набор № 2",
  "typeCollections": [
    "NEW_YEAR",
    "CHRISTMAS"
  ],
  "disabled": true,
  "priceOld": 0,
  "priceCurrent": 1870,
  "date": "2017-12-13T21:00:00.000Z",
  "num": 2,
  "genders": [
    "FEMALE",
    "MALE"
  ],
  "packages": [
    "PACKET"
  ],
  "img": {
    "small": {
      "img": "http://5.23.48.252/images/2/small.jpg",
      "id": "b09c6ba0-dc13-11e7-9774-6f5495d753ee"
    },
    "large": {
      "img": "http://5.23.48.252/images/2/big.jpg",
      "id": "b09c6ba0-dc13-11e7-9774-6f5495d753ee"
    }
  },
  "imgs": [
    {
      "img": "https://image.ibb.co/kxb5Kb/2_1.jpg",
      "id": "d8091fb1-dc15-11e7-9e61-b5237f3a04db"
    },
    {
      "img": "https://image.ibb.co/eRpLkG/2_2.jpg",
      "id": "d8091fb2-dc15-11e7-9e61-b5237f3a04db"
    }
  ]
}